[
    {
        "id": "",
        "grupo": "A11",
        "alumnos": [
            {
                "id": "",
                "nombre" : "Pepito Garcias",
                "apellido" : "Pepito Garcias",
                "correo": "pgarcia@udi.edu.co",
                "cc": "1102372260"
            }
        ],
        "quiz": {
            "id": "",
            "nombre": "Quiz programacion I - Grupo A10",
            "curso": "Programacion I",
            "tema": "patrones de diseño",
            "preguntas": [
                {
                    "id": "",
                    "enunciado": "¿Cual es el presidente actual de colombia?",
                    "type_pregunta": "unica_opcion",
                    "params_opciones": {
                        "otra_opcion": true,
                        "true_opcion": "",
                        "opciones": [
                            { "label": "Opcion 1", "is_true": false, "key": "1" },
                            { "label": "Opcion 2", "is_true": false, "key": "2" },
                            { "label": "Opcion 3", "is_true": false, "key": "3" }
                        ]
                    }
                },
                {
                    "id": "",
                    "enunciado": "Es ver que tal cosa",
                    "type_pregunta": "bool",
                    "params_opciones": {
                        "otra_opcion": false,
                        "true_opcion": "",
                        "opciones": [
                            { "label": "Verdadero", "is_true": true, "key": "1" },
                            { "label": "Falso", "is_true": false, "key": "2" }
                        ]
                    }
                },
                {
                    "id": "",
                    "enunciado": "¿Cuales son uan parte del cuerpo?",
                    "type_pregunta": "multiple_respuesta",
                    "params_opciones": {
                        "otra_opcion": false,
                        "true_opcion": "",
                        "opciones": [
                            { "label": "opcion 1", "is_true": true, "key": "1" },
                            { "label": "opcion 2", "is_true": false, "key": "2" },
                            { "label": "opcion 3", "is_true": false, "key": "3" },
                            { "label": "opcion 4", "is_true": true, "key": "4" },
                            { "label": "opcion 5", "is_true": false, "key": "5" }
                        ]
                    }
                }
            ]
        }
    }
]